<svg version="1.1"
	 id="Layer_1" xmlns:v="http://schemas.microsoft.com/visio/2003/SVGExtensions/" xmlns:ev="http://www.w3.org/2001/xml-events"
	 xmlns="http://www.w3.org/2000/svg" xmlns:xlink="http://www.w3.org/1999/xlink" x="0px" y="0px" width="34.016px"
	 height="69.449px" viewBox="18.24 18.24 34.016 69.449" enable-background="new 18.24 18.24 34.016 69.449" xml:space="preserve">
			<linearGradient id="anim"  x1="0%" y1="100%">
      <stop offset="0%" stop-color="#148F01" stop-opacity="1">
      		<animate attributeName="stop-color" 
      			values="red;rgba(255,0,0,0.3);red" dur="50ms" repeatCount="indefinite"/>
		</stop>
    </linearGradient>
        
        <g transform="translate(18.24,-48.0038)">
			<g>
				<path fill="#D7D7D7"  d="M33.018,93.168c0.55,0,1,0.45,1,1v22.1c0,0.55-0.45,1-1,1h-0.84c-0.55,0-1,0.45-1,1v5.09
					c0,0.55-0.45,1-1,1h-0.83c-0.55,0-1,0.45-1,1v9.33c0,0.55-0.45,1-1,1h-6.51c-0.55,0-1-0.45-1-1v-9.33c0-0.55-0.45-1-1-1h-6.5
					c-0.55,0-1-0.45-1-1v-0.84c0-0.55-0.45-1-1-1h-2.25c-0.55,0-1-0.45-1-1v-13.59c0-0.55-0.45-1-1-1h-5.09c-0.55,0-1-0.45-1-1
					v-37.68c0-0.55,0.45-1,1-1h29.18c0.55,0,1,0.45,1,1v24.92c0,0.55,0.45,1,1,1H33.018z">
					
        </path>
			</g>
		</g>
</svg>
